<?xml version="1.0" encoding="UTF-8" standalone="no"?>
<!-- Created with Inkscape (http://www.inkscape.org/) -->

<svg
   xmlns:dc="http://purl.org/dc/elements/1.1/"
   xmlns:cc="http://creativecommons.org/ns#"
   xmlns:rdf="http://www.w3.org/1999/02/22-rdf-syntax-ns#"
   xmlns:svg="http://www.w3.org/2000/svg"
   xmlns="http://www.w3.org/2000/svg"
   xmlns:xlink="http://www.w3.org/1999/xlink"
   xmlns:sodipodi="http://sodipodi.sourceforge.net/DTD/sodipodi-0.dtd"
   xmlns:inkscape="http://www.inkscape.org/namespaces/inkscape"
   width="1024"
   height="576"
   id="svg2"
   version="1.1"
   inkscape:version="0.48.4 r9939"
   sodipodi:docname="hud_concept.svg">
  <defs
     id="defs4">
    <linearGradient
       inkscape:collect="always"
       id="linearGradient4371">
      <stop
         style="stop-color:#000000;stop-opacity:1;"
         offset="0"
         id="stop4373" />
      <stop
         style="stop-color:#7bf3ff;stop-opacity:1"
         offset="1"
         id="stop4375" />
    </linearGradient>
    <linearGradient
       inkscape:collect="always"
       xlink:href="#linearGradient4371"
       id="linearGradient4377"
       x1="387"
       y1="1097.3622"
       x2="390"
       y2="744.36218"
       gradientUnits="userSpaceOnUse" />
    <filter
       inkscape:collect="always"
       id="filter4459">
      <feGaussianBlur
         inkscape:collect="always"
         stdDeviation="0.38104098"
         id="feGaussianBlur4461" />
    </filter>
  </defs>
  <sodipodi:namedview
     id="base"
     pagecolor="#ffffff"
     bordercolor="#666666"
     borderopacity="1.0"
     inkscape:pageopacity="0.0"
     inkscape:pageshadow="2"
     inkscape:zoom="1"
     inkscape:cx="507.41583"
     inkscape:cy="269.69094"
     inkscape:document-units="px"
     inkscape:current-layer="layer2"
     showgrid="false"
     inkscape:window-width="1600"
     inkscape:window-height="862"
     inkscape:window-x="-2"
     inkscape:window-y="-2"
     inkscape:window-maximized="1"
     width="800px"
     fit-margin-top="0"
     fit-margin-left="0"
     fit-margin-right="0"
     fit-margin-bottom="0"
     inkscape:snap-global="true"
     inkscape:snap-bbox="true"
     inkscape:bbox-paths="false"
     inkscape:bbox-nodes="false"
     showguides="false">
    <inkscape:grid
       type="xygrid"
       id="grid3004"
       empspacing="5"
       visible="true"
       enabled="true"
       snapvisiblegridlinesonly="true" />
  </sodipodi:namedview>
  <metadata
     id="metadata7">
    <rdf:RDF>
      <cc:Work
         rdf:about="">
        <dc:format>image/svg+xml</dc:format>
        <dc:type
           rdf:resource="http://purl.org/dc/dcmitype/StillImage" />
        <dc:title />
      </cc:Work>
    </rdf:RDF>
  </metadata>
  <g
     inkscape:label="Layer 1"
     inkscape:groupmode="layer"
     id="layer1"
     transform="translate(0,-476.36218)">
    <path
       style="fill:#000000;fill-opacity:1;stroke:#7a7a7a;stroke-width:1.11384975999999991;stroke-linecap:butt;stroke-linejoin:bevel;stroke-miterlimit:4;stroke-opacity:1;stroke-dasharray:none;stroke-dashoffset:0"
       d="m 80.861721,981.81906 451.714479,0 1.4238,42.54314 495,-2 1,30 -628.65193,0.2126 -330.524448,0.7457 -70.26669711,0 L 0,1024.3622 l 76,-2 z"
       id="rect3008"
       inkscape:connector-curvature="0"
       sodipodi:nodetypes="ccccccccccc" />
    <rect
       style="fill:url(#linearGradient4377);fill-opacity:1;stroke:none"
       id="rect3783"
       width="450"
       height="70"
       x="80"
       y="982.36218"
       ry="0" />
  </g>
  <g
     inkscape:groupmode="layer"
     id="layer2"
     inkscape:label="text">
    <flowRoot
       xml:space="preserve"
       id="flowRoot3786"
       style="fill:black;stroke:none;stroke-opacity:1;stroke-width:1px;stroke-linejoin:miter;stroke-linecap:butt;fill-opacity:1;font-family:Bitstream Vera Sans;font-style:normal;font-weight:normal;font-size:40px;line-height:125%;letter-spacing:0px;word-spacing:0px"><flowRegion
         id="flowRegion3788"><rect
           id="rect3790"
           width="433.35544"
           height="56.568542"
           x="88.893425"
           y="515.39087" /></flowRegion><flowPara
         id="flowPara3792" /></flowRoot>    <flowRoot
       xml:space="preserve"
       id="flowRoot3794"
       style="fill:black;stroke:none;stroke-opacity:1;stroke-width:1px;stroke-linejoin:miter;stroke-linecap:butt;fill-opacity:1;font-family:Bitstream Vera Sans;font-style:normal;font-weight:normal;font-size:40px;line-height:125%;letter-spacing:0px;word-spacing:0px"><flowRegion
         id="flowRegion3796"><rect
           id="rect3798"
           width="434.3656"
           height="58.588848"
           x="84.852814"
           y="512.36041" /></flowRegion><flowPara
         id="flowPara3800" /></flowRoot>    <flowRoot
       xml:space="preserve"
       id="flowRoot3802"
       style="fill:black;stroke:none;stroke-opacity:1;stroke-width:1px;stroke-linejoin:miter;stroke-linecap:butt;fill-opacity:1;font-family:Bitstream Vera Sans;font-style:normal;font-weight:normal;font-size:40px;line-height:125%;letter-spacing:0px;word-spacing:0px"><flowRegion
         id="flowRegion3804"><rect
           id="rect3806"
           width="420.22345"
           height="50.507626"
           x="87.88327"
           y="517.41113" /></flowRegion><flowPara
         id="flowPara3808" /></flowRoot>    <flowRoot
       xml:space="preserve"
       id="flowRoot3810"
       style="fill:black;stroke:none;stroke-opacity:1;stroke-width:1px;stroke-linejoin:miter;stroke-linecap:butt;fill-opacity:1;font-family:Bitstream Vera Sans;font-style:normal;font-weight:normal;font-size:40px;line-height:125%;letter-spacing:0px;word-spacing:0px"><flowRegion
         id="flowRegion3812"><rect
           id="rect3814"
           width="435.37573"
           height="50.507626"
           x="82.832512"
           y="516.401" /></flowRegion><flowPara
         id="flowPara3816" /></flowRoot>    <flowRoot
       xml:space="preserve"
       id="flowRoot3818"
       style="fill:black;stroke:none;stroke-opacity:1;stroke-width:1px;stroke-linejoin:miter;stroke-linecap:butt;fill-opacity:1;font-family:Bitstream Vera Sans;font-style:normal;font-weight:normal;font-size:14px;line-height:125%;letter-spacing:0px;word-spacing:0px"><flowRegion
         id="flowRegion3820"><rect
           id="rect3822"
           width="347.49246"
           height="57.578693"
           x="86.873116"
           y="518.42133" /></flowRegion><flowPara
         id="flowPara3824" /></flowRoot>    <flowRoot
       xml:space="preserve"
       id="flowRoot3826"
       style="fill:#ffffff;stroke:none;stroke-opacity:1;stroke-width:1px;stroke-linejoin:miter;stroke-linecap:butt;fill-opacity:1;font-family:Bitstream Vera Sans;font-style:normal;font-weight:normal;font-size:14px;line-height:125%;letter-spacing:0px;word-spacing:0px"><flowRegion
         id="flowRegion3828"><rect
           id="rect3830"
           width="427.29453"
           height="56.568542"
           x="91.923882"
           y="514.38068"
           style="fill:#ffffff;fill-opacity:1" /></flowRegion><flowPara
         id="flowPara3832" /></flowRoot>    <flowRoot
       xml:space="preserve"
       id="flowRoot3834"
       style="font-size:14px;font-style:normal;font-weight:normal;line-height:125%;letter-spacing:0px;word-spacing:0px;fill:#8cf5ee;fill-opacity:1;stroke:none;font-family:Bitstream Vera Sans;opacity:0.90000000000000002;filter:url(#filter4459)"
       transform="matrix(1.8410934,0,0,1.3223436,-78.894653,-172.54649)"><flowRegion
         id="flowRegion3836"><rect
           id="rect3838"
           width="431.33514"
           height="49.497475"
           x="87.88327"
           y="517.41113"
           style="fill:#8cf5ee;fill-opacity:1" /></flowRegion><flowPara
         id="flowPara3868"
         style="font-size:6.40899514999999997px;font-style:normal;font-variant:normal;font-weight:normal;font-stretch:normal;text-align:start;line-height:100%;writing-mode:lr-tb;text-anchor:start;fill:#8cf5ee;fill-opacity:1;font-family:Liberation Sans;-inkscape-font-specification:Liberation Sans">You feel cold.</flowPara><flowPara
         id="flowPara3870"
         style="font-size:6.40899514999999997px;font-style:normal;font-variant:normal;font-weight:normal;font-stretch:normal;text-align:start;line-height:100%;writing-mode:lr-tb;text-anchor:start;fill:#8cf5ee;fill-opacity:1;font-family:Liberation Sans;-inkscape-font-specification:Liberation Sans">msg: your head is/are cold (slot_cold_rating: 1)</flowPara><flowPara
         id="flowPara3872"
         style="font-size:6.40899514999999997px;font-style:normal;font-variant:normal;font-weight:normal;font-stretch:normal;text-align:start;line-height:100%;writing-mode:lr-tb;text-anchor:start;fill:#8cf5ee;fill-opacity:1;font-family:Liberation Sans;-inkscape-font-specification:Liberation Sans">msg: your face is/are cold (slot_cold_rating: 1)</flowPara><flowPara
         id="flowPara3874"
         style="font-size:6.40899514999999997px;font-style:normal;font-variant:normal;font-weight:bold;font-stretch:normal;text-align:start;line-height:100%;writing-mode:lr-tb;text-anchor:start;fill:#8cf5ee;fill-opacity:1;font-family:Liberation Sans;-inkscape-font-specification:Liberation Sans Bold">John was damaged by 3 points.</flowPara><flowPara
         id="flowPara3876"
         style="font-size:6.40899514999999997px;font-style:normal;font-variant:normal;font-weight:normal;font-stretch:normal;text-align:start;line-height:100%;writing-mode:lr-tb;text-anchor:start;fill:#8cf5ee;fill-opacity:1;font-family:Liberation Sans;-inkscape-font-specification:Liberation Sans">msg: your foots is/are FINE</flowPara><flowPara
         id="flowPara3878"
         style="font-size:6.40899514999999997px;font-style:normal;font-variant:normal;font-weight:normal;font-stretch:normal;text-align:start;line-height:100%;writing-mode:lr-tb;text-anchor:start;fill:#8cf5ee;fill-opacity:1;font-family:Liberation Sans;-inkscape-font-specification:Liberation Sans">msg: your hands is/are cold (slot_cold_rating: 1)</flowPara><flowPara
         id="flowPara3880"
         style="font-size:6.40899514999999997px;font-style:normal;font-variant:normal;font-weight:normal;font-stretch:normal;text-align:start;line-height:100%;writing-mode:lr-tb;text-anchor:start;fill:#8cf5ee;fill-opacity:1;font-family:Liberation Sans;-inkscape-font-specification:Liberation Sans">msg: your belt is/are cold (slot_cold_rating: 1)</flowPara><flowPara
         id="flowPara3882"
         style="font-size:6.40899514999999997px;font-style:normal;font-variant:normal;font-weight:normal;font-stretch:normal;text-align:start;line-height:89.99999762000000203%;writing-mode:lr-tb;text-anchor:start;font-family:Liberation Sans;-inkscape-font-specification:Liberation Sans;fill:#8cf5ee;fill-opacity:1" /></flowRoot>  </g>
</svg>
