<?xml version="1.0" encoding="utf-8"?>
<COLLADA xmlns="http://www.collada.org/2005/11/COLLADASchema" version="1.4.1">
  <asset>
    <contributor>
      <author>Blender User</author>
      <authoring_tool>Blender 2.70.0 commit date:2014-04-10, commit time:11:49, hash:f93bc76</authoring_tool>
    </contributor>
    <created>2014-06-09T02:27:21</created>
    <modified>2014-06-09T02:27:21</modified>
    <unit name="meter" meter="1"/>
    <up_axis>Z_UP</up_axis>
  </asset>
  <library_images/>
  <library_effects>
    <effect id="mat-effect">
      <profile_COMMON>
        <technique sid="common">
          <lambert>
            <emission>
              <color sid="emission">0 0 0 1</color>
            </emission>
            <ambient>
              <color sid="ambient">0 0 0 1</color>
            </ambient>
            <diffuse>
              <color sid="diffuse">1 1 0 1</color>
            </diffuse>
            <index_of_refraction>
              <float sid="index_of_refraction">1</float>
            </index_of_refraction>
          </lambert>
        </technique>
      </profile_COMMON>
    </effect>
  </library_effects>
  <library_materials>
    <material id="mat-material" name="mat">
      <instance_effect url="#mat-effect"/>
    </material>
  </library_materials>
  <library_geometries>
    <geometry id="generic_item_model-mesh" name="generic_item_model">
      <mesh>
        <source id="generic_item_model-mesh-positions">
          <float_array id="generic_item_model-mesh-positions-array" count="24">0.09999996 0.0999999 0 0.09999996 -0.09999996 0 -0.09999996 -0.0999999 0 -0.0999999 0.09999996 0 0.1 0.0999999 0.1999999 0.09999984 -0.1 0.1999999 -0.09999996 -0.0999999 0.1999999 -0.0999999 0.09999996 0.1999999</float_array>
          <technique_common>
            <accessor source="#generic_item_model-mesh-positions-array" count="8" stride="3">
              <param name="X" type="float"/>
              <param name="Y" type="float"/>
              <param name="Z" type="float"/>
            </accessor>
          </technique_common>
        </source>
        <source id="generic_item_model-mesh-normals">
          <float_array id="generic_item_model-mesh-normals-array" count="36">0 0 -1 0 0 1 1 -5.58794e-7 3.35276e-7 -4.84288e-7 -1 0 -1 2.23518e-7 0 2.23518e-7 1 1.86265e-7 0 0 -1 0 0 1 1 0 -2.23517e-7 0 -1 -2.98023e-7 -1 2.6077e-7 -1.49012e-7 2.6077e-7 1 2.23517e-7</float_array>
          <technique_common>
            <accessor source="#generic_item_model-mesh-normals-array" count="12" stride="3">
              <param name="X" type="float"/>
              <param name="Y" type="float"/>
              <param name="Z" type="float"/>
            </accessor>
          </technique_common>
        </source>
        <vertices id="generic_item_model-mesh-vertices">
          <input semantic="POSITION" source="#generic_item_model-mesh-positions"/>
        </vertices>
        <polylist material="mat-material" count="12">
          <input semantic="VERTEX" source="#generic_item_model-mesh-vertices" offset="0"/>
          <input semantic="NORMAL" source="#generic_item_model-mesh-normals" offset="1"/>
          <vcount>3 3 3 3 3 3 3 3 3 3 3 3 </vcount>
          <p>0 0 1 0 2 0 4 1 7 1 6 1 4 2 5 2 1 2 5 3 6 3 2 3 2 4 6 4 7 4 0 5 3 5 7 5 3 6 0 6 2 6 5 7 4 7 6 7 0 8 4 8 1 8 1 9 5 9 2 9 3 10 2 10 7 10 4 11 0 11 7 11</p>
        </polylist>
      </mesh>
    </geometry>
  </library_geometries>
  <library_controllers/>
  <library_visual_scenes>
    <visual_scene id="Scene" name="Scene">
      <node id="generic_item_model" name="generic_item_model" type="NODE">
        <matrix sid="transform">1 0 0 0 0 1 0 0 0 0 1 0 0 0 0 1</matrix>
        <instance_geometry url="#generic_item_model-mesh">
          <bind_material>
            <technique_common>
              <instance_material symbol="mat-material" target="#mat-material"/>
            </technique_common>
          </bind_material>
        </instance_geometry>
      </node>
    </visual_scene>
  </library_visual_scenes>
  <scene>
    <instance_visual_scene url="#Scene"/>
  </scene>
</COLLADA>