<?xml version="1.0" encoding="UTF-8" standalone="no"?>
<!-- Created with Inkscape (http://www.inkscape.org/) -->

<svg
   xmlns:osb="http://www.openswatchbook.org/uri/2009/osb"
   xmlns:dc="http://purl.org/dc/elements/1.1/"
   xmlns:cc="http://creativecommons.org/ns#"
   xmlns:rdf="http://www.w3.org/1999/02/22-rdf-syntax-ns#"
   xmlns:svg="http://www.w3.org/2000/svg"
   xmlns="http://www.w3.org/2000/svg"
   xmlns:xlink="http://www.w3.org/1999/xlink"
   xmlns:sodipodi="http://sodipodi.sourceforge.net/DTD/sodipodi-0.dtd"
   xmlns:inkscape="http://www.inkscape.org/namespaces/inkscape"
   width="1300"
   height="300"
   id="svg2987"
   version="1.1"
   inkscape:version="0.48.4 r9939"
   sodipodi:docname="lev_design.svg">
  <defs
     id="defs2989">
    <pattern
       inkscape:collect="always"
       xlink:href="#Strips1_1white"
       id="pattern6804"
       patternTransform="matrix(11.278362,0,0,11.3786,-224.57207,-55.145484)" />
    <pattern
       inkscape:stockid="Stripes 1:1 white"
       id="Strips1_1white"
       patternTransform="translate(0,0) scale(10,10)"
       height="1"
       width="2"
       patternUnits="userSpaceOnUse"
       inkscape:collect="always">
      <rect
         id="rect5075"
         height="2"
         width="1"
         y="-0.5"
         x="0"
         style="fill:white;stroke:none" />
    </pattern>
    <linearGradient
       id="linearGradient5867"
       osb:paint="solid">
      <stop
         style="stop-color:#000000;stop-opacity:1;"
         offset="0"
         id="stop5869" />
    </linearGradient>
    <linearGradient
       id="linearGradient5861"
       osb:paint="solid">
      <stop
         style="stop-color:#00936f;stop-opacity:1;"
         offset="0"
         id="stop5863" />
    </linearGradient>
    <filter
       inkscape:collect="always"
       id="filter4565"
       color-interpolation-filters="sRGB">
      <feGaussianBlur
         inkscape:collect="always"
         stdDeviation="3.6138096"
         id="feGaussianBlur4567" />
    </filter>
  </defs>
  <sodipodi:namedview
     id="base"
     pagecolor="#ffffff"
     bordercolor="#ffffff"
     borderopacity="0.0"
     inkscape:pageopacity="1"
     inkscape:pageshadow="0"
     inkscape:zoom="1"
     inkscape:cx="603"
     inkscape:cy="175"
     inkscape:document-units="px"
     inkscape:current-layer="layer2"
     showgrid="true"
     showguides="true"
     inkscape:guide-bbox="true"
     inkscape:window-width="1440"
     inkscape:window-height="862"
     inkscape:window-x="-2"
     inkscape:window-y="-2"
     inkscape:window-maximized="1"
     inkscape:showpageshadow="true"
     borderlayer="false">
    <sodipodi:guide
       orientation="0,1"
       position="-35.433071,0"
       id="guide2997" />
    <sodipodi:guide
       orientation="1,0"
       position="0,0"
       id="guide2999" />
    <inkscape:grid
       type="xygrid"
       id="grid3005"
       empspacing="10"
       visible="true"
       enabled="true"
       snapvisiblegridlinesonly="true"
       color="#0000ff"
       opacity="0.07843137"
       dotted="false"
       originx="0px"
       units="px"
       spacingx="10px"
       spacingy="10px"
       empcolor="#0000ff"
       empopacity="0.23529412"
       originy="0px" />
  </sodipodi:namedview>
  <metadata
     id="metadata2992">
    <rdf:RDF>
      <cc:Work
         rdf:about="">
        <dc:format>image/svg+xml</dc:format>
        <dc:type
           rdf:resource="http://purl.org/dc/dcmitype/StillImage" />
        <dc:title />
      </cc:Work>
    </rdf:RDF>
  </metadata>
  <g
     inkscape:label="Layer 1"
     inkscape:groupmode="layer"
     id="layer1"
     transform="translate(0,-752.36218)">
    <path
       style="fill:none;stroke:#000000;stroke-width:5;stroke-linecap:butt;stroke-linejoin:miter;stroke-miterlimit:4;stroke-opacity:1;stroke-dasharray:40, 5;stroke-dashoffset:0;marker-start:none;marker-end:none"
       d="M -10.875678,975.0032 C 77.707,939.57018 166.28968,904.13711 343.45506,904.13711 M -10.875678,921.85365 C 166.28968,904.13711 290.30542,904.13711 343.45506,904.13711 c 70.8661,0 141.7323,0 206.8841,-7.99775 37.6372,-4.62016 124.01584,-17.71653 159.44884,-17.71653 146.4215,0 295.7276,18.66408 413.1946,43.43082 C 1234.3925,945.3433 1300,952.36218 1300,952.36218"
       id="path3033"
       inkscape:connector-curvature="0"
       sodipodi:nodetypes="cccssssc" />
    <path
       style="fill:#00936f;fill-opacity:1;stroke:none"
       d="m 1.124322,785.12137 c 124.015748,0 200.454788,11.64469 318.897638,70.86614 8.49829,4.24914 70.8661,0 141.7323,-17.71654 58.9967,-14.74918 141.7323,-17.71653 212.59844,0 C 900.2735,894.75117 1200,852.36218 1200,852.36218 l 100,-100 c 0,0 -486.66465,0 -700,0 -60,0 -310,0 -400,0 -70.86614,0 -200,0 -200,0 z"
       id="path4343"
       inkscape:connector-curvature="0"
       sodipodi:nodetypes="csssccsscc" />
    <rect
       style="opacity:0.9765625;fill:#85202b;fill-opacity:1;stroke:none"
       id="rect6055"
       width="106.29921"
       height="53.149605"
       x="-415.27939"
       y="895.08746"
       transform="matrix(0.94351016,-0.33134361,0.33134361,0.94351016,0,0)" />
    <rect
       style="fill:#cd774a;fill-opacity:1;stroke:none"
       id="rect6061"
       width="222.71866"
       height="10.265708"
       x="-19.617207"
       y="1001.8622"
       transform="matrix(0.99486852,-0.10117618,0.47907157,0.87777584,0,0)" />
    <rect
       style="fill:#535353;fill-opacity:1;stroke:none"
       id="rect6071"
       width="110.86615"
       height="5"
       x="792.74292"
       y="849.94672"
       transform="matrix(0.99883677,0.04821932,-0.04821932,0.99883677,0,0)" />
    <rect
       style="fill:#535353;fill-opacity:1;stroke:none"
       id="rect6071-6"
       width="60.581047"
       height="12.725107"
       x="1411.8158"
       y="661.20569"
       transform="matrix(0.97982339,0.19986529,-0.28984842,0.95707256,0,0)" />
    <path
       style="fill:none;stroke:#000000;stroke-width:0.5px;stroke-linecap:butt;stroke-linejoin:miter;stroke-opacity:1"
       d="M 166.28968,939.57018 z"
       id="path6237"
       inkscape:connector-curvature="0" />
    <rect
       style="fill:url(#pattern6804);fill-opacity:1;stroke:none;filter:url(#filter4565)"
       id="rect6248"
       width="130.51102"
       height="165.79242"
       x="1728.8944"
       y="198.26527"
       transform="matrix(0.49741634,0.05076406,-0.21713601,0.45039089,-10.875678,608.27098)" />
  </g>
  <g
     inkscape:groupmode="layer"
     id="layer2"
     inkscape:label="lables"
     transform="translate(0,-752.36218)">
    <text
       xml:space="preserve"
       style="font-size:29.76600456px;font-style:normal;font-weight:normal;line-height:100%;letter-spacing:0px;word-spacing:0px;opacity:0.8;fill:#0000ff;fill-opacity:1;stroke:none;font-family:Bitstream Vera Sans"
       x="14.88355"
       y="525.65564"
       id="text5975"
       sodipodi:linespacing="100%"
       transform="scale(0.67188271,1.488355)"><tspan
         sodipodi:role="line"
         id="tspan5977"
         x="14.88355"
         y="525.65564"
         style="font-size:20px;font-style:normal;font-variant:normal;font-weight:normal;font-stretch:condensed;line-height:100%;fill:#0000ff;fill-opacity:1;stroke:none;font-family:'Anka/Coder Narrow';-inkscape-font-specification:'Anka/Coder Narrow Condensed'">лес</tspan></text>
    <text
       xml:space="preserve"
       style="font-size:29.76598358px;font-style:normal;font-weight:normal;line-height:100%;letter-spacing:0px;word-spacing:0px;opacity:0.8;fill:#0000ff;fill-opacity:1;stroke:none;font-family:Bitstream Vera Sans"
       x="14.883561"
       y="606.28113"
       id="text5975-8"
       sodipodi:linespacing="100%"
       transform="scale(0.67188222,1.4883561)"><tspan
         sodipodi:role="line"
         id="tspan5977-5"
         x="14.883561"
         y="606.28113"
         style="font-size:20px;font-style:normal;font-variant:normal;font-weight:normal;font-stretch:normal;line-height:100%;fill:#0000ff;fill-opacity:1;stroke:none;font-family:'Anka/Coder';-inkscape-font-specification:'Anka/Coder'">жд путь</tspan></text>
    <text
       transform="scale(0.67188222,1.4883561)"
       sodipodi:linespacing="100%"
       id="text6057"
       y="695.95355"
       x="14.883603"
       style="font-size:29.76598358px;font-style:normal;font-weight:normal;line-height:100%;letter-spacing:0px;word-spacing:0px;opacity:0.8;fill:#0000ff;fill-opacity:1;stroke:none;font-family:Bitstream Vera Sans"
       xml:space="preserve"><tspan
         style="font-size:19.99999999px;font-style:normal;font-variant:normal;font-weight:normal;font-stretch:normal;line-height:100%;fill:#0000ff;fill-opacity:1;stroke:none;font-family:'Anka/Coder';-inkscape-font-specification:'Anka/Coder'"
         y="695.95355"
         x="14.883603"
         id="tspan6059"
         sodipodi:role="line">депо</tspan></text>
    <text
       xml:space="preserve"
       style="font-size:20px;font-style:normal;font-weight:normal;line-height:100%;letter-spacing:0px;word-spacing:0px;opacity:0.8;fill:#0000ff;fill-opacity:1;stroke:none;font-family:Bitstream Vera Sans"
       x="744.17804"
       y="579.40582"
       id="text6063"
       sodipodi:linespacing="100%"
       transform="scale(0.67188222,1.4883561)"><tspan
         sodipodi:role="line"
         x="744.17804"
         y="579.40582"
         style="font-size:20px;font-style:normal;font-variant:normal;font-weight:normal;font-stretch:normal;line-height:100%;fill:#0000ff;fill-opacity:1;stroke:none;font-family:'Anka/Coder';-inkscape-font-specification:'Anka/Coder'"
         id="tspan6067">перевернутый поезд</tspan></text>
    <text
       xml:space="preserve"
       style="font-size:29.76598358px;font-style:normal;font-weight:normal;line-height:100%;letter-spacing:0px;word-spacing:0px;opacity:0.8;fill:#0000ff;fill-opacity:1;stroke:none;font-family:Bitstream Vera Sans"
       x="1131.1506"
       y="619.71875"
       id="text6063-1"
       sodipodi:linespacing="100%"
       transform="scale(0.67188222,1.4883561)"><tspan
         sodipodi:role="line"
         x="1131.1506"
         y="619.71875"
         style="font-size:19.99999999px;font-style:normal;font-variant:normal;font-weight:normal;font-stretch:normal;line-height:100%;fill:#0000ff;fill-opacity:1;stroke:none;font-family:'Anka/Coder';-inkscape-font-specification:'Anka/Coder'"
         id="tspan6067-7">станция</tspan></text>
    <text
       xml:space="preserve"
       style="font-size:29.76598358px;font-style:normal;font-weight:normal;line-height:100%;letter-spacing:0px;word-spacing:0px;opacity:0.8;fill:#0000ff;fill-opacity:1;stroke:none;font-family:Bitstream Vera Sans"
       x="1786.0273"
       y="606.28113"
       id="text6063-1-1"
       sodipodi:linespacing="100%"
       transform="scale(0.67188222,1.4883561)"><tspan
         sodipodi:role="line"
         x="1786.0273"
         y="606.28113"
         style="font-size:20px;font-style:normal;font-variant:normal;font-weight:normal;font-stretch:normal;line-height:100%;fill:#0000ff;fill-opacity:1;stroke:none;font-family:'Anka/Coder';-inkscape-font-specification:'Anka/Coder'"
         id="tspan6067-7-1">станция</tspan></text>
    <text
       xml:space="preserve"
       style="font-size:19.99999999px;font-style:normal;font-weight:normal;line-height:100%;letter-spacing:0px;word-spacing:0px;opacity:0.80000000000000004;fill:#0000ff;fill-opacity:1;stroke:none;font-family:Bitstream Vera Sans"
       x="1205.5685"
       y="525.65521"
       id="text6063-1-16"
       sodipodi:linespacing="100%"
       transform="scale(0.67188222,1.4883561)"><tspan
         sodipodi:role="line"
         x="1205.5685"
         y="525.65521"
         style="font-size:19.99999999px;font-style:normal;font-variant:normal;font-weight:normal;font-stretch:normal;line-height:100%;fill:#0000ff;fill-opacity:1;stroke:none;font-family:'Anka/Coder';-inkscape-font-specification:'Anka/Coder'"
         id="tspan6067-7-7">вырубка</tspan></text>
  </g>
</svg>
