# Blender v2.70 (sub 0) OBJ File: ''
# www.blender.org
o Plane
v -3.300000 0.000000 3.300000
v 3.300000 0.000000 3.300000
v -3.300000 0.000000 -3.300000
v 3.300000 0.000000 -3.300000
s off
f 2 4 3
f 1 2 3
