Content-Type: text/x-zim-wiki
Wiki-Format: zim 0.4
Creation-Date: 2014-06-18T03:51:17+04:00

====== Защита ======

http://fallout.wikia.com/wiki/Armor_Class
http://ru.fallout.wikia.com/wiki/%D0%9A%D0%BB%D0%B0%D1%81%D1%81_%D0%B1%D1%80%D0%BE%D0%BD%D0%B8
http://fallout.wikia.com/wiki/Damage_Resistance
http://ru.fallout.wikia.com/wiki/%D0%A1%D0%BE%D0%BF%D1%80%D0%BE%D1%82%D0%B8%D0%B2%D0%BB%D1%8F%D0%B5%D0%BC%D0%BE%D1%81%D1%82%D1%8C_%D1%83%D1%80%D0%BE%D0%BD%D1%83
http://fallout.wikia.com/wiki/Damage_Threshold
http://ru.fallout.wikia.com/wiki/%D0%9F%D1%80%D0%B5%D0%B4%D0%B5%D0%BB_%D1%83%D1%80%D0%BE%D0%BD%D0%B0
