<?xml version="1.0" encoding="utf-8"?>
<COLLADA xmlns="http://www.collada.org/2005/11/COLLADASchema" version="1.4.1">
  <asset>
    <contributor>
      <author>Blender User</author>
      <authoring_tool>Blender 2.70.0 commit date:2014-04-10, commit time:11:49, hash:f93bc76</authoring_tool>
    </contributor>
    <created>2014-06-16T22:57:04</created>
    <modified>2014-06-16T22:57:04</modified>
    <unit name="meter" meter="1"/>
    <up_axis>Z_UP</up_axis>
  </asset>
  <library_images/>
  <library_effects>
    <effect id="plane_mat-effect">
      <profile_COMMON>
        <technique sid="common">
          <blinn>
            <emission>
              <color sid="emission">0 0 0 1</color>
            </emission>
            <ambient>
              <color sid="ambient">0 0 0 1</color>
            </ambient>
            <diffuse>
              <color sid="diffuse">0 0.1507914 0.1413626 1</color>
            </diffuse>
            <specular>
              <color sid="specular">0.5 0.5 0.5 1</color>
            </specular>
            <shininess>
              <float sid="shininess">50</float>
            </shininess>
            <index_of_refraction>
              <float sid="index_of_refraction">1</float>
            </index_of_refraction>
          </blinn>
        </technique>
      </profile_COMMON>
    </effect>
  </library_effects>
  <library_materials>
    <material id="plane_mat-material" name="plane_mat">
      <instance_effect url="#plane_mat-effect"/>
    </material>
  </library_materials>
  <library_geometries>
    <geometry id="plane-mesh" name="plane">
      <mesh>
        <source id="plane-mesh-positions">
          <float_array id="plane-mesh-positions-array" count="12">-2.5 -2.5 0 2.5 -2.5 0 -2.5 2.5 0 2.5 2.5 0</float_array>
          <technique_common>
            <accessor source="#plane-mesh-positions-array" count="4" stride="3">
              <param name="X" type="float"/>
              <param name="Y" type="float"/>
              <param name="Z" type="float"/>
            </accessor>
          </technique_common>
        </source>
        <source id="plane-mesh-normals">
          <float_array id="plane-mesh-normals-array" count="6">0 0 1 0 0 1</float_array>
          <technique_common>
            <accessor source="#plane-mesh-normals-array" count="2" stride="3">
              <param name="X" type="float"/>
              <param name="Y" type="float"/>
              <param name="Z" type="float"/>
            </accessor>
          </technique_common>
        </source>
        <vertices id="plane-mesh-vertices">
          <input semantic="POSITION" source="#plane-mesh-positions"/>
        </vertices>
        <polylist material="plane_mat-material" count="2">
          <input semantic="VERTEX" source="#plane-mesh-vertices" offset="0"/>
          <input semantic="NORMAL" source="#plane-mesh-normals" offset="1"/>
          <vcount>3 3 </vcount>
          <p>0 0 1 0 3 0 2 1 0 1 3 1</p>
        </polylist>
      </mesh>
    </geometry>
  </library_geometries>
  <library_controllers/>
  <library_visual_scenes>
    <visual_scene id="Scene" name="Scene">
      <node id="spawn_pos" name="spawn_pos" type="NODE">
        <matrix sid="transform">1 0 0 0 0 1 0 0 0 0 1 0 0 0 0 1</matrix>
      </node>
      <node id="plane" name="plane" type="NODE">
        <matrix sid="transform">1 0 0 0 0 1 0 0 0 0 1 0 0 0 0 1</matrix>
        <instance_geometry url="#plane-mesh">
          <bind_material>
            <technique_common>
              <instance_material symbol="plane_mat-material" target="#plane_mat-material"/>
            </technique_common>
          </bind_material>
        </instance_geometry>
      </node>
    </visual_scene>
  </library_visual_scenes>
  <scene>
    <instance_visual_scene url="#Scene"/>
  </scene>
</COLLADA>